…
frogs
#> # A tibble: 3,272 x 15
#>      row distance duration distance_3 jump_n frog_type distance_3_off
#>    <int>    <dbl>    <dbl>      <dbl>  <int>     <chr>          <dbl>
#>  1     1  165.950  0.58333          0      1       pro             -1
#>  2     2  177.480  0.71667          0      2       pro             -1
#>  3     3    0.000  0.00000          0      3       pro             -1
#>  4     4   27.158  0.43333          0      1       pro             -1
#>  5     5    0.000  0.00000          0      2       pro             -1
#>  6     6    0.000  0.00000          0      3       pro             -1
#>  7     7   40.914  0.40000          0      1       pro             -1
#>  8     8    0.000  0.00000          0      2       pro             -1
#>  9     9    0.000  0.00000          0      3       pro             -1
#> 10    10   35.853  0.48333          0      1       pro             -1
#> # ... with 3,262 more rows, and 8 more variables: distance_rel <dbl>,
#> #   day <dbl>, angle_01 <dbl>, angle_10 <dbl>, angle_00 <dbl>,
#> #   velocity_01 <dbl>, velocity_10 <dbl>, velocity_00 <dbl>
…
